<?xml version="1.0" encoding="UTF-8"?>
<!-- Created with Jaspersoft Studio version 6.6.0.final using JasperReports Library version 6.6.0  -->
<jasperReport xmlns="http://jasperreports.sourceforge.net/jasperreports" xmlns:xsi="http://www.w3.org/2001/XMLSchema-instance" xsi:schemaLocation="http://jasperreports.sourceforge.net/jasperreports http://jasperreports.sourceforge.net/xsd/jasperreport.xsd" name="taxonomy" pageWidth="842" pageHeight="595" orientation="Landscape" whenNoDataType="AllSectionsNoDetail" columnWidth="802" leftMargin="20" rightMargin="20" topMargin="20" bottomMargin="20" uuid="ca432a02-e2f1-4b48-8a16-96fd2d79a14a">
	<property name="com.jaspersoft.studio.data.defaultdataadapter" value="acmt-qa"/>
	<property name="ireport.jasperserver.url" value="http://acmt-dev.learningmate.com:8090/jasperserver/"/>
	<property name="ireport.jasperserver.user" value="jasperadmin"/>
	<property name="ireport.jasperserver.reportUnit" value="/reports/interactive/export_taxonomy"/>
	<property name="com.jaspersoft.studio.data.sql.tables" value=""/>
	<property name="com.jaspersoft.studio.data.sql.SQLQueryDesigner.sash.w1" value="271"/>
	<property name="com.jaspersoft.studio.data.sql.SQLQueryDesigner.sash.w2" value="722"/>
	<property name="ireport.jasperserver.report.resource" value="/reports/interactive/export_taxonomy_files/main_jrxml"/>
	<parameter name="document_id" class="java.lang.String"/>
	<parameter name="organization_id" class="java.lang.String"/>
	<queryString>
		<![CDATA[SELECT 
    IFNULL(t1.human_coding_scheme,'' ) AS lev1_hc,      REPLACE( IFNULL(t1.full_statement,'' ), '\t', '  ') AS lev1_fs,
    IFNULL(t2.human_coding_scheme,'' ) AS lev2_hc,      REPLACE( IFNULL(t2.full_statement,'' ), '\t', '  ') AS lev2_fs,
    IFNULL(t3.human_coding_scheme,'' ) AS lev3_hc,      REPLACE( IFNULL(t3.full_statement,'' ), '\t', '  ') AS lev3_fs,
    IFNULL(t4.human_coding_scheme,'' ) AS lev4_hc,      REPLACE( IFNULL(t4.full_statement,'' ), '\t', '  ') AS lev4_fs,
    IFNULL(t5.human_coding_scheme,'' ) AS lev5_hc,      REPLACE( IFNULL(t5.full_statement,'' ), '\t', '  ') AS lev5_fs,
    IFNULL(t6.human_coding_scheme,'' ) AS lev6_hc,      REPLACE( IFNULL(t6.full_statement,'' ), '\t', '  ') AS lev6_fs,  
    
    REPLACE( IFNULL(CONCAT(t1.human_coding_scheme,' ',t1.full_statement),'' ), '\t', '  ') AS lev1,
    REPLACE( IFNULL(CONCAT(t2.human_coding_scheme,' ',t2.full_statement),'' ), '\t', '  ') AS lev2,
    REPLACE( IFNULL(CONCAT(t3.human_coding_scheme,' ',t3.full_statement),'' ), '\t', '  ') AS lev3,
    REPLACE( IFNULL(CONCAT(t4.human_coding_scheme,' ',t4.full_statement),'' ), '\t', '  ') AS lev4,
    REPLACE( IFNULL(CONCAT(t5.human_coding_scheme,' ',t5.full_statement),'' ), '\t', '  ') AS lev5,
    REPLACE( IFNULL(CONCAT(t6.human_coding_scheme,' ',t6.full_statement),'' ), '\t', '  ') AS lev6,    
    d.title
 FROM acmt_items AS t1
 INNER JOIN acmt_documents as d on d.document_id=t1.document_id
LEFT JOIN acmt_items AS t2 ON t2.parent_id = t1.item_id and t2.`organization_id` = $P{organization_id} and t2.`is_deleted` = '0'
LEFT JOIN acmt_items AS t3 ON t3.parent_id = t2.item_id and t3.`organization_id` = $P{organization_id} and t3.`is_deleted` = '0'
LEFT JOIN acmt_items AS t4 ON t4.parent_id = t3.item_id and t4.`organization_id` = $P{organization_id}  and t4.`is_deleted` = '0'
LEFT JOIN acmt_items AS t5 ON t5.parent_id = t4.item_id and t5.`organization_id` = $P{organization_id} and t5.`is_deleted` = '0'
LEFT JOIN acmt_items AS t6 ON t6.parent_id = t5.item_id and t6.`organization_id` =$P{organization_id} and t6.`is_deleted` = '0'
WHERE t1.`document_id` = $P{document_id}  and t1.`organization_id` =  $P{organization_id}  and t1.`is_deleted` = '0'
and t1.`parent_id` = $P{document_id}
order by
CAST(t1.list_enumeration AS DECIMAL) ,lev1,
CAST(t2.list_enumeration AS DECIMAL) ,lev2,
CAST(t3.list_enumeration AS DECIMAL) ,lev3,
CAST(t4.list_enumeration AS DECIMAL) ,lev4,
CAST(t5.list_enumeration AS DECIMAL) ,lev5,
CAST(t6.list_enumeration AS DECIMAL) ,lev6
]]>
	</queryString>
	<field name="lev1_hc" class="java.lang.String">
		<property name="com.jaspersoft.studio.field.label" value="lev1_hc"/>
	</field>
	<field name="lev1_fs" class="java.lang.String">
		<property name="com.jaspersoft.studio.field.label" value="lev1_fs"/>
	</field>
	<field name="lev2_hc" class="java.lang.String">
		<property name="com.jaspersoft.studio.field.label" value="lev2_hc"/>
	</field>
	<field name="lev2_fs" class="java.lang.String">
		<property name="com.jaspersoft.studio.field.label" value="lev2_fs"/>
	</field>
	<field name="lev3_hc" class="java.lang.String">
		<property name="com.jaspersoft.studio.field.label" value="lev3_hc"/>
	</field>
	<field name="lev3_fs" class="java.lang.String">
		<property name="com.jaspersoft.studio.field.label" value="lev3_fs"/>
	</field>
	<field name="lev4_hc" class="java.lang.String">
		<property name="com.jaspersoft.studio.field.label" value="lev4_hc"/>
	</field>
	<field name="lev4_fs" class="java.lang.String">
		<property name="com.jaspersoft.studio.field.label" value="lev4_fs"/>
	</field>
	<field name="lev5_hc" class="java.lang.String">
		<property name="com.jaspersoft.studio.field.label" value="lev5_hc"/>
	</field>
	<field name="lev5_fs" class="java.lang.String">
		<property name="com.jaspersoft.studio.field.label" value="lev5_fs"/>
	</field>
	<field name="lev6_hc" class="java.lang.String">
		<property name="com.jaspersoft.studio.field.label" value="lev6_hc"/>
	</field>
	<field name="lev6_fs" class="java.lang.String">
		<property name="com.jaspersoft.studio.field.label" value="lev6_fs"/>
	</field>
	<field name="lev1" class="java.lang.String">
		<property name="com.jaspersoft.studio.field.label" value="lev1"/>
	</field>
	<field name="lev2" class="java.lang.String">
		<property name="com.jaspersoft.studio.field.label" value="lev2"/>
	</field>
	<field name="lev3" class="java.lang.String">
		<property name="com.jaspersoft.studio.field.label" value="lev3"/>
	</field>
	<field name="lev4" class="java.lang.String">
		<property name="com.jaspersoft.studio.field.label" value="lev4"/>
	</field>
	<field name="lev5" class="java.lang.String">
		<property name="com.jaspersoft.studio.field.label" value="lev5"/>
	</field>
	<field name="lev6" class="java.lang.String">
		<property name="com.jaspersoft.studio.field.label" value="lev6"/>
	</field>
	<field name="title" class="java.lang.String">
		<property name="com.jaspersoft.studio.field.label" value="title"/>
		<property name="com.jaspersoft.studio.field.tree.path" value="acmt_documents"/>
	</field>
	<group name="lev1GRP">
		<groupExpression><![CDATA[$F{lev1}]]></groupExpression>
		<groupHeader>
			<band height="65">
				<property name="com.jaspersoft.studio.layout" value="com.jaspersoft.studio.editor.layout.FreeLayout"/>
				<printWhenExpression><![CDATA[$F{lev1}.length() > 0 ?  true : false]]></printWhenExpression>
				<rectangle>
					<reportElement x="0" y="34" width="802" height="31" backcolor="#D0E0E3" uuid="247514e8-8f3c-4a20-bba8-eb2729e29ef0"/>
					<graphicElement>
						<pen lineWidth="0.0" lineColor="#D3D3D3"/>
					</graphicElement>
				</rectangle>
				<textField>
					<reportElement x="0" y="34" width="380" height="31" uuid="edac8204-1e7c-4872-986c-8db5bd4aad47">
						<printWhenExpression><![CDATA[$F{lev1_hc}.length() > 0 ?  true : false]]></printWhenExpression>
					</reportElement>
					<box padding="2">
						<pen lineWidth="1.0" lineColor="#D3D3D3"/>
					</box>
					<textElement verticalAlignment="Middle">
						<font fontName="AArial" size="12" isBold="true"/>
					</textElement>
					<textFieldExpression><![CDATA[$F{lev1_hc}]]></textFieldExpression>
				</textField>
				<textField>
					<reportElement x="0" y="34" width="802" height="31" uuid="45bad215-bc4b-45d9-b879-8a0051f5f2d3">
						<printWhenExpression><![CDATA[$F{lev1_hc}.length() > 0 ? false : true]]></printWhenExpression>
					</reportElement>
					<box padding="2">
						<pen lineWidth="1.0" lineColor="#D3D3D3"/>
					</box>
					<textElement verticalAlignment="Middle">
						<font fontName="AArial" size="12" isBold="true"/>
					</textElement>
					<textFieldExpression><![CDATA[$F{lev1_fs}]]></textFieldExpression>
				</textField>
				<textField>
					<reportElement x="380" y="34" width="422" height="31" uuid="2d71ebac-00cd-41b4-aa94-0126042ff527">
						<printWhenExpression><![CDATA[$F{lev1_hc}.length() > 0 ?  true : false]]></printWhenExpression>
					</reportElement>
					<box padding="2">
						<pen lineWidth="1.0" lineColor="#D3D3D3"/>
					</box>
					<textElement verticalAlignment="Middle">
						<font fontName="AArial" size="12" isBold="true"/>
					</textElement>
					<textFieldExpression><![CDATA[$F{lev1_fs}]]></textFieldExpression>
				</textField>
			</band>
		</groupHeader>
	</group>
	<group name="lev2GRP">
		<groupExpression><![CDATA[$F{lev2}]]></groupExpression>
		<groupHeader>
			<band height="31">
				<printWhenExpression><![CDATA[$F{lev2}.length() > 0 ?  true : false]]></printWhenExpression>
				<rectangle>
					<reportElement x="0" y="0" width="802" height="31" backcolor="#D9EAD3" uuid="534b6eb4-5ea8-4f25-bd98-73719aa18468"/>
					<graphicElement>
						<pen lineWidth="0.0" lineColor="#D3D3D3"/>
					</graphicElement>
				</rectangle>
				<textField>
					<reportElement x="0" y="0" width="380" height="31" uuid="1eec63f4-9dd5-4133-9699-0bac9be14664">
						<property name="com.jaspersoft.studio.spreadsheet.connectionID" value="317fac9e-7785-408c-a799-5bdab46b67c6"/>
						<printWhenExpression><![CDATA[$F{lev2_hc}.length() > 0 ?  true : false]]></printWhenExpression>
					</reportElement>
					<box leftPadding="2">
						<pen lineColor="#D3D3D3"/>
						<topPen lineWidth="1.0" lineStyle="Solid" lineColor="#D3D3D3"/>
						<leftPen lineWidth="1.0" lineStyle="Solid" lineColor="#D3D3D3"/>
						<bottomPen lineWidth="1.0" lineStyle="Solid" lineColor="#D3D3D3"/>
						<rightPen lineWidth="1.0" lineStyle="Solid" lineColor="#D3D3D3"/>
					</box>
					<textElement verticalAlignment="Middle">
						<font fontName="AArial" size="11" isBold="true"/>
					</textElement>
					<textFieldExpression><![CDATA[$F{lev2_hc}]]></textFieldExpression>
				</textField>
				<textField>
					<reportElement x="380" y="0" width="422" height="31" uuid="7a8594d6-b6f1-42fe-b789-3e537c45b79a">
						<property name="com.jaspersoft.studio.spreadsheet.connectionID" value="317fac9e-7785-408c-a799-5bdab46b67c6"/>
						<printWhenExpression><![CDATA[$F{lev2_hc}.length() > 0 ?  true : false]]></printWhenExpression>
					</reportElement>
					<box leftPadding="2">
						<pen lineColor="#D3D3D3"/>
						<topPen lineWidth="1.0" lineStyle="Solid" lineColor="#D3D3D3"/>
						<leftPen lineWidth="1.0" lineStyle="Solid" lineColor="#D3D3D3"/>
						<bottomPen lineWidth="1.0" lineStyle="Solid" lineColor="#D3D3D3"/>
						<rightPen lineWidth="1.0" lineStyle="Solid" lineColor="#D3D3D3"/>
					</box>
					<textElement verticalAlignment="Middle">
						<font fontName="AArial" size="11" isBold="true"/>
					</textElement>
					<textFieldExpression><![CDATA[$F{lev2_fs}]]></textFieldExpression>
				</textField>
				<textField>
					<reportElement x="0" y="0" width="802" height="31" uuid="11ecee3b-dda5-4e83-b70c-a5de642f5884">
						<property name="com.jaspersoft.studio.spreadsheet.connectionID" value="317fac9e-7785-408c-a799-5bdab46b67c6"/>
						<printWhenExpression><![CDATA[$F{lev2_hc}.length() > 0 ? false : true]]></printWhenExpression>
					</reportElement>
					<box leftPadding="2">
						<pen lineColor="#D3D3D3"/>
						<topPen lineWidth="1.0" lineStyle="Solid" lineColor="#D3D3D3"/>
						<leftPen lineWidth="1.0" lineStyle="Solid" lineColor="#D3D3D3"/>
						<bottomPen lineWidth="1.0" lineStyle="Solid" lineColor="#D3D3D3"/>
						<rightPen lineWidth="1.0" lineStyle="Solid" lineColor="#D3D3D3"/>
					</box>
					<textElement textAlignment="Left" verticalAlignment="Middle">
						<font fontName="AArial" size="11" isBold="true"/>
					</textElement>
					<textFieldExpression><![CDATA[$F{lev2_fs}]]></textFieldExpression>
				</textField>
			</band>
		</groupHeader>
	</group>
	<group name="lev3GRP">
		<groupExpression><![CDATA[$F{lev3}]]></groupExpression>
		<groupHeader>
			<band height="31">
				<printWhenExpression><![CDATA[$F{lev3}.length() > 0 ?  true : false]]></printWhenExpression>
				<rectangle>
					<reportElement x="0" y="0" width="802" height="31" backcolor="#FCE5CD" uuid="08af4f87-6571-4b0e-8eb0-4831f6d7dbb5"/>
					<graphicElement>
						<pen lineWidth="1.0" lineColor="#D3D3D3"/>
					</graphicElement>
				</rectangle>
				<textField>
					<reportElement x="0" y="0" width="802" height="31" uuid="4c87b76c-3863-441b-a418-56db0e985214">
						<printWhenExpression><![CDATA[$F{lev3_hc}.length() > 0 ?  true : false]]></printWhenExpression>
					</reportElement>
					<box topPadding="0" leftPadding="2" bottomPadding="0" rightPadding="0">
						<pen lineWidth="1.0" lineColor="#D3D3D3"/>
					</box>
					<textElement verticalAlignment="Middle">
						<font fontName="AArial" isBold="true"/>
					</textElement>
					<textFieldExpression><![CDATA[$F{lev3_hc}]]></textFieldExpression>
				</textField>
				<textField>
					<reportElement x="0" y="0" width="802" height="31" uuid="cff41cef-1b86-4afd-a318-94bcc6fcb300">
						<printWhenExpression><![CDATA[$F{lev3_hc}.length() > 0 ?  false : true]]></printWhenExpression>
					</reportElement>
					<box topPadding="0" leftPadding="2" bottomPadding="0" rightPadding="0">
						<pen lineWidth="1.0" lineColor="#D3D3D3"/>
					</box>
					<textElement verticalAlignment="Middle">
						<font fontName="AArial" isBold="true"/>
					</textElement>
					<textFieldExpression><![CDATA[$F{lev3_fs}]]></textFieldExpression>
				</textField>
				<textField>
					<reportElement x="380" y="0" width="422" height="31" uuid="dc757039-fcbd-45da-bd72-dcf875713a5e">
						<printWhenExpression><![CDATA[$F{lev3_hc}.length() > 0 ?  true : false]]></printWhenExpression>
					</reportElement>
					<box topPadding="0" leftPadding="2" bottomPadding="0" rightPadding="0">
						<pen lineWidth="1.0" lineColor="#D3D3D3"/>
					</box>
					<textElement verticalAlignment="Middle">
						<font fontName="AArial" isBold="true"/>
					</textElement>
					<textFieldExpression><![CDATA[$F{lev3_fs}]]></textFieldExpression>
				</textField>
			</band>
		</groupHeader>
	</group>
	<group name="lev4GRP" keepTogether="true">
		<groupExpression><![CDATA[$F{lev4}]]></groupExpression>
		<groupHeader>
			<band height="31">
				<printWhenExpression><![CDATA[$F{lev4}.length() > 0 ?  true : false]]></printWhenExpression>
				<rectangle>
					<reportElement stretchType="ContainerHeight" x="0" y="0" width="802" height="31" backcolor="#CFE2F3" uuid="f85a0b57-8bd1-4498-96b9-3f745d8716ce"/>
					<graphicElement>
						<pen lineWidth="1.0" lineColor="#D3D3D3"/>
					</graphicElement>
				</rectangle>
				<textField isStretchWithOverflow="true">
					<reportElement stretchType="ElementGroupHeight" x="380" y="0" width="422" height="31" uuid="19ddc3ec-e418-4951-9d1f-58ec377c0d9a">
						<printWhenExpression><![CDATA[$F{lev4_hc}.length() > 0 ?  true : false]]></printWhenExpression>
					</reportElement>
					<box padding="2">
						<pen lineColor="#D3D3D3"/>
						<topPen lineWidth="1.0" lineStyle="Solid" lineColor="#D3D3D3"/>
						<leftPen lineWidth="1.0" lineStyle="Solid" lineColor="#D3D3D3"/>
						<bottomPen lineWidth="1.0" lineStyle="Solid" lineColor="#D3D3D3"/>
						<rightPen lineWidth="1.0" lineStyle="Solid" lineColor="#D3D3D3"/>
					</box>
					<textElement textAlignment="Left" verticalAlignment="Middle" markup="none">
						<font fontName="AArial"/>
						<paragraph tabStopWidth="0"/>
					</textElement>
					<textFieldExpression><![CDATA[$F{lev4_fs}]]></textFieldExpression>
				</textField>
				<textField isStretchWithOverflow="true">
					<reportElement stretchType="ElementGroupHeight" x="0" y="0" width="380" height="31" uuid="dc142655-0499-4a0e-9953-87044964333b">
						<printWhenExpression><![CDATA[$F{lev4_hc}.length() > 0 ?  true : false]]></printWhenExpression>
					</reportElement>
					<box padding="2">
						<pen lineColor="#D3D3D3"/>
						<topPen lineWidth="1.0" lineStyle="Solid" lineColor="#D3D3D3"/>
						<leftPen lineWidth="1.0" lineStyle="Solid" lineColor="#D3D3D3"/>
						<bottomPen lineWidth="1.0" lineStyle="Solid" lineColor="#D3D3D3"/>
						<rightPen lineWidth="1.0" lineStyle="Solid" lineColor="#D3D3D3"/>
					</box>
					<textElement textAlignment="Left" verticalAlignment="Middle" markup="none">
						<font fontName="AArial"/>
						<paragraph tabStopWidth="0"/>
					</textElement>
					<textFieldExpression><![CDATA[$F{lev4_hc}]]></textFieldExpression>
				</textField>
				<textField>
					<reportElement x="0" y="0" width="802" height="31" uuid="7eec247f-6c06-4ec3-819b-94abcdab1f6f">
						<printWhenExpression><![CDATA[$F{lev4_hc}.length() > 0 ?  false : true]]></printWhenExpression>
					</reportElement>
					<box topPadding="0" leftPadding="2" bottomPadding="0" rightPadding="0">
						<pen lineWidth="1.0" lineColor="#D3D3D3"/>
					</box>
					<textElement verticalAlignment="Middle">
						<font fontName="AArial" isBold="true"/>
					</textElement>
					<textFieldExpression><![CDATA[$F{lev4_fs}]]></textFieldExpression>
				</textField>
			</band>
		</groupHeader>
	</group>
	<group name="lev5GRP" keepTogether="true">
		<groupExpression><![CDATA[$F{lev5}]]></groupExpression>
		<groupHeader>
			<band height="31">
				<printWhenExpression><![CDATA[$F{lev5}.length() > 0 ?  true : false]]></printWhenExpression>
				<rectangle>
					<reportElement stretchType="ContainerHeight" x="0" y="0" width="802" height="31" backcolor="#E8DADB" uuid="2b3956e9-78ed-48ba-89e6-01ab9b330902"/>
					<graphicElement>
						<pen lineWidth="1.0" lineColor="#D3D3D3"/>
					</graphicElement>
				</rectangle>
				<textField isStretchWithOverflow="true">
					<reportElement stretchType="ElementGroupHeight" x="380" y="0" width="422" height="31" uuid="0c222e10-6c98-41d5-94e9-aabbde37bc97">
						<printWhenExpression><![CDATA[$F{lev5_hc}.length() > 0 ?  true : false]]></printWhenExpression>
					</reportElement>
					<box padding="2">
						<pen lineColor="#D3D3D3"/>
						<topPen lineWidth="1.0" lineStyle="Solid" lineColor="#D3D3D3"/>
						<leftPen lineWidth="1.0" lineStyle="Solid" lineColor="#D3D3D3"/>
						<bottomPen lineWidth="1.0" lineStyle="Solid" lineColor="#D3D3D3"/>
						<rightPen lineWidth="1.0" lineStyle="Solid" lineColor="#D3D3D3"/>
					</box>
					<textElement textAlignment="Left" verticalAlignment="Middle" markup="none">
						<font fontName="AArial" size="9"/>
						<paragraph tabStopWidth="0"/>
					</textElement>
					<textFieldExpression><![CDATA[$F{lev5_fs}]]></textFieldExpression>
				</textField>
				<textField isStretchWithOverflow="true">
					<reportElement stretchType="ElementGroupHeight" x="0" y="0" width="380" height="31" uuid="de82291d-fe45-470d-ae46-e822e2b75599">
						<printWhenExpression><![CDATA[$F{lev5_hc}.length() > 0 ?  true : false]]></printWhenExpression>
					</reportElement>
					<box padding="2">
						<pen lineColor="#D3D3D3"/>
						<topPen lineWidth="1.0" lineStyle="Solid" lineColor="#D3D3D3"/>
						<leftPen lineWidth="1.0" lineStyle="Solid" lineColor="#D3D3D3"/>
						<bottomPen lineWidth="1.0" lineStyle="Solid" lineColor="#D3D3D3"/>
						<rightPen lineWidth="1.0" lineStyle="Solid" lineColor="#D3D3D3"/>
					</box>
					<textElement textAlignment="Left" verticalAlignment="Middle" markup="none">
						<font fontName="AArial" size="9"/>
						<paragraph tabStopWidth="0"/>
					</textElement>
					<textFieldExpression><![CDATA[$F{lev5_hc}]]></textFieldExpression>
				</textField>
				<textField isStretchWithOverflow="true">
					<reportElement stretchType="ElementGroupHeight" mode="Transparent" x="0" y="0" width="802" height="31" uuid="d1b67473-d469-43aa-aa49-af37b6e5435f">
						<printWhenExpression><![CDATA[$F{lev5_hc}.length() > 0 ?  false : true]]></printWhenExpression>
					</reportElement>
					<box padding="2">
						<pen lineColor="#D3D3D3"/>
						<topPen lineWidth="1.0" lineStyle="Solid" lineColor="#D3D3D3"/>
						<leftPen lineWidth="1.0" lineStyle="Solid" lineColor="#D3D3D3"/>
						<bottomPen lineWidth="1.0" lineStyle="Solid" lineColor="#D3D3D3"/>
						<rightPen lineWidth="1.0" lineStyle="Solid" lineColor="#D3D3D3"/>
					</box>
					<textElement textAlignment="Left" verticalAlignment="Middle" markup="none">
						<font fontName="AArial" size="9"/>
						<paragraph tabStopWidth="0"/>
					</textElement>
					<textFieldExpression><![CDATA[$F{lev5_fs}]]></textFieldExpression>
				</textField>
			</band>
		</groupHeader>
	</group>
	<group name="lev6GRP" keepTogether="true">
		<groupExpression><![CDATA[$F{lev6}]]></groupExpression>
		<groupHeader>
			<band height="31">
				<printWhenExpression><![CDATA[$F{lev6}.length() > 0 ?  true : false]]></printWhenExpression>
				<rectangle>
					<reportElement stretchType="ContainerHeight" x="0" y="0" width="802" height="31" backcolor="#D5D9B2" uuid="d07be437-9fdf-4269-8ddc-99f9d8d48ad9"/>
					<graphicElement>
						<pen lineWidth="1.0" lineColor="#D3D3D3"/>
					</graphicElement>
				</rectangle>
				<textField isStretchWithOverflow="true">
					<reportElement stretchType="ElementGroupHeight" x="0" y="0" width="380" height="31" uuid="ebda42eb-f29c-4da0-b873-b0cd43086926">
						<printWhenExpression><![CDATA[$F{lev6_hc}.length() > 0 ?  true : false]]></printWhenExpression>
					</reportElement>
					<box leftPadding="2">
						<pen lineColor="#D3D3D3"/>
						<topPen lineWidth="1.0" lineStyle="Solid" lineColor="#D3D3D3"/>
						<leftPen lineWidth="1.0" lineStyle="Solid" lineColor="#D3D3D3"/>
						<bottomPen lineWidth="1.0" lineStyle="Solid" lineColor="#D3D3D3"/>
						<rightPen lineWidth="1.0" lineStyle="Solid" lineColor="#D3D3D3"/>
					</box>
					<textElement textAlignment="Left" verticalAlignment="Middle" markup="none">
						<font fontName="AArial" size="8"/>
						<paragraph tabStopWidth="0"/>
					</textElement>
					<textFieldExpression><![CDATA[$F{lev6_hc}]]></textFieldExpression>
				</textField>
				<textField isStretchWithOverflow="true">
					<reportElement stretchType="ElementGroupHeight" x="0" y="0" width="802" height="31" uuid="11abb681-d972-4668-a2b1-9f818723fc30">
						<printWhenExpression><![CDATA[$F{lev6_hc}.length() > 0 ?  false : true]]></printWhenExpression>
					</reportElement>
					<box leftPadding="2">
						<pen lineColor="#D3D3D3"/>
					</box>
					<textElement textAlignment="Left" verticalAlignment="Middle" markup="none">
						<font fontName="AArial" size="8"/>
						<paragraph tabStopWidth="0"/>
					</textElement>
					<textFieldExpression><![CDATA[$F{lev6_fs}]]></textFieldExpression>
				</textField>
				<textField isStretchWithOverflow="true">
					<reportElement stretchType="ElementGroupHeight" x="380" y="0" width="422" height="31" uuid="1744e91e-dce2-4bed-8f12-e567739200cb">
						<printWhenExpression><![CDATA[$F{lev4_hc}.length() > 0 ? false : true]]></printWhenExpression>
					</reportElement>
					<box leftPadding="2">
						<pen lineColor="#D3D3D3"/>
					</box>
					<textElement textAlignment="Left" verticalAlignment="Middle" markup="none">
						<font fontName="AArial"/>
						<paragraph tabStopWidth="0"/>
					</textElement>
					<textFieldExpression><![CDATA[$F{lev5_fs}]]></textFieldExpression>
				</textField>
			</band>
		</groupHeader>
	</group>
	<background>
		<band height="118" splitType="Stretch"/>
	</background>
	<title>
		<band height="51">
			<textField>
				<reportElement x="0" y="21" width="802" height="30" uuid="6108d1fc-2b98-4324-b9ed-a12b914a8681"/>
				<textElement textAlignment="Left" verticalAlignment="Middle">
					<font fontName="AArial" size="14" isBold="false"/>
				</textElement>
				<textFieldExpression><![CDATA[$F{title}]]></textFieldExpression>
			</textField>
		</band>
	</title>
</jasperReport>
