{
    "AWSGLOBAL": {
        "accessKeyId": "AKIAXHMIMWVJ3FYZ33PY",
        "secretAccessKey": "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",
        "region": "us-east-1"
    },

    "AWSS3": {
        "AWS_S3_BUCKET": "acmt-dev-backend",
        "AWS_S3_BUCKET_FOLDER": ""
    },

    "DBCONFIG": {
        "host": "acmt-dev-main-rds.ce9bcc1pq6dg.us-east-1.rds.amazonaws.com",
        "user": "acmtdev",
        "password": "wefvpni411j",
        "database": "acmtdevmain"
    }
   
}