[
  {
    "name": "Home",
    "path": "home",
    "children": [],
    "active": true,
    "isExpanded": false
  },
  {
    "name": "Taxonomies",
    "path": "taxonomies",
    "children": [],
    "active": false,
    "isExpanded": false
  },
  {
    "name": "Documents",
    "path": "documents",
    "children": [],
    "active": false,
    "isExpanded": false
  }
]